0 782 1.0
0 1060 1.0
0 766 1.0
0 299 5.0
0 300 5.0
0 217 4.0
0 671 4.0
1 82 4.0
1 79 4.0
1 0 5.0
1 23 5.0
1 48 5.0
1 33 3.0
1 84 5.0
2 95 5.0
2 191 3.0
2 214 4.0
2 0 5.0
2 225 5.0
2 258 4.0
2 30 5.0
3 421 5.0
3 603 5.0
3 912 5.0
3 1297 4.0
3 1 3.0
3 463 4.0
3 684 3.0
4 10 5.0
4 390 4.0
4 1063 5.0
4 650 5.0
4 140 5.0
4 1 3.0
4 409 4.0
5 517 5.0
5 316 5.0
5 273 1.0
5 588 1.0
5 392 5.0
5 436 3.0
5 2 5.0
6 454 3.0
6 421 5.0
6 736 4.0
6 220 4.0
6 35 3.0
6 1062 1.0
6 490 4.0
7 568 4.0
7 1040 5.0
7 552 5.0
7 91 5.0
7 1140 5.0
7 1111 3.0
7 2 5.0
8 38 3.0
8 41 3.0
8 43 2.0
8 27 5.0
8 265 4.0
8 2 5.0
8 315 5.0
9 17 5.0
9 38 3.0
9 41 2.0
9 61 3.0
9 3 4.0
9 32 3.0
9 2 5.0
10 35 5.0
10 2 1.0
10 1260 5.0
10 166 4.0
10 984 4.0
10 39 5.0
10 249 5.0
11 214 5.0
11 170 2.0
11 197 4.0
11 145 5.0
11 158 4.0
11 191 3.0
11 411 5.0
12 28 5.0
12 29 5.0
12 2 5.0
12 16 5.0
12 23 5.0
12 54 4.0
12 43 4.0
13 890 1.0
13 1192 1.0
13 64 5.0
13 1298 2.0
13 330 4.0
13 1155 5.0
13 1035 4.0
14 3 5.0
14 32 5.0
14 64 5.0
14 188 5.0
14 309 5.0
14 515 5.0
14 824 5.0
15 300 5.0
15 552 5.0
15 550 5.0
15 548 5.0
15 551 5.0
15 603 5.0
15 217 5.0
16 3 5.0
16 17 5.0
16 35 4.0
16 58 4.0
16 42 5.0
16 59 5.0
16 60 4.0
17 3 5.0
17 32 3.0
17 267 5.0
17 65 5.0
17 232 2.0
17 555 2.0
17 553 4.0
18 3 5.0
18 35 4.0
18 32 3.0
18 88 4.0
18 50 4.0
18 49 5.0
18 69 4.0
19 17 4.0
19 3 4.0
19 32 2.0
19 87 4.0
19 115 4.0
19 114 4.0
19 117 5.0
20 157 4.0
20 3 5.0
20 319 2.0
20 334 4.0
20 405 2.0
20 370 5.0
20 456 1.0
21 3 5.0
21 32 4.0
21 94 3.0
21 29 4.0
21 170 3.0
21 50 5.0
21 107 5.0
22 727 5.0
22 32 5.0
22 217 5.0
22 958 5.0
22 472 5.0
22 736 5.0
22 1095 5.0
23 3 5.0
23 26 2.0
23 28 5.0
23 13 4.0
23 34 4.0
23 27 4.0
23 55 5.0
24 3 5.0
24 239 4.0
24 32 5.0
24 71 5.0
24 117 5.0
24 53 5.0
24 87 5.0
25 42 5.0
25 27 5.0
25 21 5.0
25 23 5.0
25 24 5.0
25 43 4.0
25 53 5.0
26 60 5.0
26 59 5.0
26 119 5.0
26 4 5.0
26 22 5.0
26 234 4.0
26 523 5.0
27 529 5.0
27 4 5.0
27 22 5.0
27 74 5.0
27 121 5.0
27 830 5.0
27 252 5.0
28 4 5.0
28 531 4.0
28 60 5.0
28 119 5.0
28 42 5.0
28 92 5.0
28 989 5.0
29 5 3.0
29 421 5.0
29 60 4.0
29 176 3.0
29 55 5.0
29 249 5.0
29 311 4.0
30 298 4.0
30 446 5.0
30 5 3.0
30 6 4.0
30 8 3.0
30 7 4.0
30 1013 4.0
31 11 5.0
31 465 5.0
31 565 5.0
31 341 1.0
31 647 5.0
31 470 5.0
31 748 5.0
32 349 4.0
32 508 2.0
32 400 5.0
32 1045 5.0
32 1023 4.0
32 201 5.0
32 1201 5.0
33 704 5.0
33 669 5.0
33 606 5.0
33 640 5.0
33 332 4.0
33 421 4.0
33 7 5.0
34 159 5.0
34 357 5.0
34 537 5.0
34 417 5.0
34 366 4.0
34 545 4.0
34 440 4.0
35 393 4.0
35 10 5.0
35 1023 5.0
35 1141 5.0
35 1300 5.0
35 1332 4.0
35 1232 5.0
36 370 3.0
36 64 5.0
36 298 4.0
36 446 5.0
36 772 5.0
36 410 4.0
36 493 4.0
37 393 4.0
37 1013 4.0
37 772 5.0
37 677 5.0
37 446 4.0
37 414 3.0
37 470 4.0
38 11 5.0
38 263 5.0
38 264 5.0
38 271 5.0
38 307 5.0
38 308 5.0
38 20 5.0
39 247 4.0
39 39 5.0
39 11 5.0
39 96 4.0
39 402 5.0
39 135 5.0
39 300 5.0
40 106 5.0
40 216 4.0
40 294 4.0
40 11 4.0
40 368 4.0
40 339 4.0
40 649 4.0
41 164 4.0
41 637 5.0
41 414 5.0
41 580 5.0
41 581 5.0
41 1037 4.0
41 216 5.0
42 134 1.0
42 100 5.0
42 12 5.0
42 167 5.0
42 262 5.0
42 278 5.0
42 734 3.0
43 421 5.0
43 603 5.0
43 294 5.0
43 231 5.0
43 1152 5.0
43 251 5.0
43 800 5.0
44 308 5.0
44 275 5.0
44 291 5.0
44 295 5.0
44 296 4.0
44 368 5.0
44 12 4.0
45 184 2.0
45 382 5.0
45 12 4.0
45 294 3.0
45 381 5.0
45 556 4.0
45 335 3.0
46 217 4.0
46 339 4.0
46 610 3.0
46 12 5.0
46 60 4.0
46 303 5.0
46 55 4.0
47 55 5.0
47 753 4.0
47 321 5.0
47 12 5.0
47 195 5.0
47 719 4.0
47 1089 4.0
48 50 5.0
48 88 5.0
48 118 5.0
48 49 5.0
48 204 5.0
48 205 5.0
48 274 3.0
49 488 5.0
49 1043 4.0
49 189 5.0
49 278 5.0
49 373 5.0
49 230 5.0
49 231 5.0
50 199 3.0
50 155 3.0
50 305 4.0
50 69 3.0
50 13 3.0
50 129 4.0
50 116 3.0
51 48 5.0
51 749 4.0
51 13 5.0
51 106 5.0
51 221 2.0
51 472 5.0
51 103 4.0
52 49 5.0
52 99 4.0
52 185 5.0
52 69 3.0
52 116 3.0
52 13 4.0
52 64 5.0
53 13 4.0
53 35 5.0
53 15 3.0
53 41 3.0
53 61 5.0
53 59 5.0
53 53 5.0
54 235 5.0
54 13 5.0
54 221 4.0
54 82 5.0
54 78 5.0
54 128 5.0
54 419 4.0
55 13 3.0
55 16 4.0
55 32 2.0
55 113 1.0
55 119 5.0
55 208 3.0
55 207 5.0
56 145 5.0
56 14 3.0
56 349 2.0
56 214 3.0
56 745 4.0
56 178 4.0
56 424 5.0
57 14 4.0
57 158 5.0
57 436 3.0
57 370 5.0
57 543 2.0
57 559 3.0
57 584 4.0
58 750 2.0
58 772 3.0
58 763 3.0
58 764 3.0
58 821 5.0
58 611 2.0
58 14 4.0
59 95 5.0
59 14 5.0
59 145 5.0
59 334 5.0
59 764 5.0
59 792 5.0
59 874 3.0
60 829 5.0
60 1022 5.0
60 15 5.0
60 918 5.0
60 302 4.0
60 52 5.0
60 53 2.0
61 15 4.0
61 119 5.0
61 139 5.0
61 361 5.0
61 756 5.0
61 1225 5.0
61 1229 5.0
62 486 4.0
62 677 5.0
62 15 5.0
62 82 5.0
62 221 3.0
62 227 4.0
62 536 4.0
63 16 5.0
63 113 5.0
63 138 4.0
63 470 5.0
63 331 3.0
63 199 5.0
63 179 5.0
64 69 5.0
64 28 5.0
64 44 5.0
64 68 3.0
64 113 5.0
64 16 5.0
64 34 5.0
65 16 4.0
65 35 4.0
65 69 4.0
65 59 4.0
65 84 4.0
65 116 4.0
65 239 4.0
66 17 5.0
66 27 5.0
66 34 5.0
66 16 5.0
66 43 3.0
66 53 5.0
66 50 5.0
67 17 5.0
67 132 5.0
67 529 5.0
67 729 5.0
67 486 5.0
67 748 5.0
67 1255 5.0
68 27 5.0
68 17 5.0
68 79 5.0
68 115 5.0
68 34 5.0
68 84 5.0
68 420 5.0
69 52 5.0
69 53 5.0
69 87 5.0
69 242 4.0
69 95 4.0
69 493 4.0
69 631 4.0
70 529 5.0
70 918 5.0
70 521 5.0
70 979 5.0
70 17 5.0
70 825 5.0
70 968 5.0
71 267 5.0
71 27 5.0
71 43 5.0
71 91 5.0
71 17 4.0
71 210 5.0
71 42 5.0
72 529 5.0
72 521 5.0
72 17 5.0
72 79 5.0
72 115 5.0
72 724 5.0
72 523 5.0
73 78 5.0
73 59 5.0
73 17 5.0
73 27 5.0
73 91 5.0
73 139 5.0
73 128 3.0
74 356 4.0
74 830 3.0
74 912 5.0
74 825 5.0
74 326 4.0
74 972 5.0
74 18 5.0
75 339 5.0
75 488 4.0
75 698 4.0
75 857 4.0
75 18 5.0
75 886 5.0
75 591 4.0
76 239 5.0
76 225 4.0
76 430 5.0
76 349 3.0
76 319 3.0
76 625 5.0
76 290 4.0
77 92 4.0
77 486 4.0
77 472 4.0
77 19 3.0
77 181 5.0
77 326 4.0
77 119 3.0
78 669 5.0
78 30 4.0
78 760 5.0
78 1111 5.0
78 398 4.0
78 729 5.0
78 1175 5.0
79 435 3.0
79 383 5.0
79 285 2.0
79 20 5.0
79 76 5.0
79 93 5.0
79 122 5.0
80 486 5.0
80 603 5.0
80 82 5.0
80 106 5.0
80 21 4.0
80 529 4.0
80 729 5.0
81 21 5.0
81 22 5.0
81 46 5.0
81 24 5.0
81 23 4.0
81 75 4.0
81 79 4.0
82 593 5.0
82 1022 5.0
82 1238 4.0
82 601 5.0
82 1059 5.0
82 1270 5.0
82 24 5.0
83 815 5.0
83 802 5.0
83 828 5.0
83 756 5.0
83 1130 5.0
83 1186 4.0
83 250 5.0
84 24 5.0
84 252 5.0
84 338 5.0
84 421 4.0
84 341 3.0
84 46 3.0
84 48 4.0
85 299 5.0
85 300 5.0
85 25 5.0
85 217 5.0
85 682 5.0
85 850 5.0
85 250 5.0
86 27 5.0
86 638 4.0
86 640 5.0
86 630 5.0
86 599 5.0
86 252 5.0
86 337 4.0
87 91 5.0
87 173 4.0
87 258 5.0
87 64 1.0
87 27 4.0
87 820 1.0
87 814 1.0
88 27 5.0
88 120 5.0
88 179 5.0
88 208 5.0
88 139 5.0
88 193 5.0
88 340 5.0
89 446 1.0
89 27 5.0
89 472 5.0
89 513 1.0
89 91 5.0
89 232 1.0
89 341 1.0
90 55 4.0
90 61 4.0
90 88 5.0
90 83 5.0
90 79 5.0
90 27 5.0
90 33 5.0
91 27 5.0
91 239 5.0
91 349 5.0
91 456 4.0
91 330 3.0
91 697 5.0
91 907 2.0
92 27 5.0
92 95 4.0
92 34 5.0
92 59 4.0
92 84 5.0
92 64 5.0
92 239 5.0
93 107 5.0
93 124 5.0
93 185 1.0
93 239 4.0
93 27 3.0
93 91 5.0
93 489 5.0
94 813 5.0
94 320 3.0
94 27 5.0
94 762 5.0
94 1067 4.0
94 981 3.0
94 545 5.0
95 718 4.0
95 810 4.0
95 852 4.0
95 830 4.0
95 828 5.0
95 27 5.0
95 674 5.0
96 267 5.0
96 27 5.0
96 334 4.0
96 349 3.0
96 98 3.0
96 420 5.0
96 405 2.0
97 64 5.0
97 42 5.0
97 27 5.0
97 246 5.0
97 322 4.0
97 45 3.0
97 94 3.0
98 419 3.0
98 91 5.0
98 421 5.0
98 603 5.0
98 912 5.0
98 27 5.0
98 432 4.0
99 756 5.0
99 330 4.0
99 421 5.0
99 603 5.0
99 721 5.0
99 555 5.0
99 28 4.0
100 603 5.0
100 885 5.0
100 912 5.0
100 28 5.0
100 552 5.0
100 736 5.0
100 549 5.0
101 1188 5.0
101 1268 2.0
101 1297 4.0
101 1360 4.0
101 885 5.0
101 28 5.0
101 44 5.0
102 325 4.0
102 29 5.0
102 627 4.0
102 572 3.0
102 520 4.0
102 431 5.0
102 391 4.0
103 41 4.0
103 29 5.0
103 95 3.0
103 145 4.0
103 91 5.0
103 54 5.0
103 242 2.0
104 30 5.0
104 371 5.0
104 148 4.0
104 108 5.0
104 458 4.0
104 196 3.0
104 254 5.0
105 729 4.0
105 42 5.0
105 302 4.0
105 585 5.0
105 30 5.0
105 321 5.0
105 719 4.0
106 203 5.0
106 692 5.0
106 660 5.0
106 812 5.0
106 433 5.0
106 299 5.0
106 770 5.0
107 31 5.0
107 61 3.0
107 319 5.0
107 346 4.0
107 313 5.0
107 290 4.0
107 613 5.0
108 913 5.0
108 432 4.0
108 470 5.0
108 664 4.0
108 728 5.0
108 32 5.0
108 729 5.0
109 32 5.0
109 760 5.0
109 919 3.0
109 533 3.0
109 1111 2.0
109 1095 3.0
109 1168 5.0
110 677 4.0
110 799 3.0
110 827 4.0
110 951 3.0
110 1073 3.0
110 1074 5.0
110 1137 5.0
111 99 4.0
111 423 4.0
111 502 5.0
111 619 4.0
111 1082 5.0
111 352 3.0
111 759 3.0
112 35 3.0
112 188 4.0
112 57 5.0
112 123 4.0
112 145 4.0
112 170 4.0
112 238 5.0
113 446 4.0
113 493 3.0
113 756 5.0
113 736 5.0
113 393 5.0
113 476 5.0
113 749 5.0
114 729 4.0
114 469 3.0
114 749 4.0
114 756 4.0
114 748 3.0
114 719 3.0
114 1022 3.0
115 585 4.0
115 878 4.0
115 431 4.0
115 233 1.0
115 1384 4.0
115 850 4.0
115 35 5.0
116 35 5.0
116 488 1.0
116 702 3.0
116 748 3.0
116 428 4.0
116 39 1.0
116 782 4.0
117 1340 5.0
117 217 5.0
117 850 5.0
117 421 5.0
117 119 5.0
117 138 5.0
117 1297 5.0
118 428 4.0
118 671 4.0
118 176 3.0
118 682 4.0
118 409 3.0
118 35 2.0
118 672 4.0
119 764 4.0
119 802 5.0
119 830 5.0
119 832 5.0
119 852 4.0
119 975 4.0
119 1130 5.0
120 773 5.0
120 533 5.0
120 951 5.0
120 35 5.0
120 1093 5.0
120 1221 5.0
120 1184 5.0
121 421 5.0
121 333 3.0
121 359 5.0
121 679 1.0
121 912 5.0
121 36 5.0
121 35 5.0
122 219 5.0
122 594 5.0
122 196 5.0
122 337 5.0
122 35 5.0
122 1242 5.0
122 36 5.0
123 513 5.0
123 522 5.0
123 530 5.0
123 662 5.0
123 862 5.0
123 35 5.0
123 970 5.0
124 328 5.0
124 217 5.0
124 251 5.0
124 250 5.0
124 615 5.0
124 1059 5.0
124 35 5.0
125 503 5.0
125 653 5.0
125 680 4.0
125 912 5.0
125 1096 5.0
125 1224 5.0
125 1126 4.0
126 42 5.0
126 44 5.0
126 228 5.0
126 257 4.0
126 120 5.0
126 90 4.0
126 35 5.0
127 1058 5.0
127 244 5.0
127 603 5.0
127 1340 5.0
127 1339 5.0
127 1336 5.0
127 961 5.0
128 926 5.0
128 813 3.0
128 972 3.0
128 1146 3.0
128 1239 5.0
128 1157 5.0
128 722 4.0
129 635 5.0
129 176 5.0
129 825 5.0
129 35 5.0
129 710 1.0
129 1077 1.0
129 1332 3.0
130 311 3.0
130 42 3.0
130 193 3.0
130 341 3.0
130 320 4.0
130 421 4.0
130 603 5.0
131 1059 4.0
131 255 5.0
131 268 5.0
131 281 5.0
131 1208 5.0
131 36 4.0
131 506 4.0
132 197 1.0
132 261 1.0
132 290 1.0
132 349 1.0
132 319 1.0
132 456 1.0
132 492 5.0
133 815 5.0
133 852 4.0
133 1138 4.0
133 607 4.0
133 1318 4.0
133 36 3.0
133 1353 4.0
134 425 3.0
134 436 2.0
134 290 4.0
134 426 2.0
134 405 3.0
134 349 4.0
134 334 4.0
135 309 5.0
135 625 5.0
135 243 5.0
135 214 5.0
135 89 5.0
135 426 1.0
135 197 1.0
136 319 3.0
136 330 3.0
136 168 5.0
136 315 3.0
136 158 4.0
136 334 5.0
136 349 3.0
137 349 1.0
137 370 3.0
137 405 2.0
137 425 5.0
137 436 3.0
137 433 4.0
137 443 4.0
138 1372 5.0
138 37 4.0
138 784 5.0
138 1104 3.0
138 1128 4.0
138 1192 4.0
138 1157 5.0
139 95 5.0
139 261 5.0
139 203 3.0
139 37 4.0
139 151 5.0
139 284 4.0
139 149 4.0
140 95 3.0
140 405 3.0
140 425 4.0
140 363 4.0
140 433 4.0
140 37 5.0
140 349 4.0
141 37 5.0
141 688 4.0
141 875 5.0
141 804 4.0
141 683 5.0
141 197 1.0
141 582 3.0
142 38 2.0
142 832 5.0
142 756 5.0
142 1250 4.0
142 1270 5.0
142 1224 5.0
142 1232 5.0
143 39 5.0
143 290 5.0
143 145 4.0
143 370 3.0
143 349 2.0
143 214 4.0
143 643 1.0
144 118 5.0
144 146 5.0
144 107 5.0
144 119 4.0
144 123 4.0
144 39 5.0
144 147 4.0
145 217 5.0
145 48 5.0
145 169 5.0
145 1063 5.0
145 1058 3.0
145 213 4.0
145 39 5.0
146 39 5.0
146 96 5.0
146 817 5.0
146 511 5.0
146 589 5.0
146 723 5.0
146 769 5.0
147 188 5.0
147 55 5.0
147 95 5.0
147 220 5.0
147 50 5.0
147 39 1.0
147 350 4.0
148 55 4.0
148 60 4.0
148 552 4.0
148 42 4.0
148 437 5.0
148 39 2.0
148 343 2.0
149 39 4.0
149 320 4.0
149 493 5.0
149 309 4.0
149 255 5.0
149 469 4.0
149 268 5.0
150 197 1.0
150 232 5.0
150 341 4.0
150 390 4.0
150 405 2.0
150 349 2.0
150 397 2.0
151 39 2.0
151 547 5.0
151 875 2.0
151 829 4.0
151 1332 1.0
151 1040 3.0
151 253 5.0
152 540 4.0
152 41 3.0
152 76 4.0
152 690 4.0
152 965 5.0
152 1312 5.0
152 231 4.0
153 94 3.0
153 41 4.0
153 456 2.0
153 325 3.0
153 784 3.0
153 837 3.0
153 867 1.0
154 603 4.0
154 666 3.0
154 619 5.0
154 447 1.0
154 716 3.0
154 53 5.0
154 327 3.0
155 42 2.0
155 197 5.0
155 145 3.0
155 261 1.0
155 370 1.0
155 559 4.0
155 425 4.0
156 892 5.0
156 339 5.0
156 453 5.0
156 42 5.0
156 341 5.0
156 92 5.0
156 1132 2.0
157 84 4.0
157 277 3.0
157 42 5.0
157 494 5.0
157 570 5.0
157 92 5.0
157 711 5.0
158 834 5.0
158 462 5.0
158 852 5.0
158 943 4.0
158 579 4.0
158 749 5.0
158 42 4.0
159 776 1.0
159 845 5.0
159 42 4.0
159 1060 1.0
159 1009 4.0
159 1200 5.0
159 55 3.0
160 42 4.0
160 92 4.0
160 421 5.0
160 850 4.0
160 428 5.0
160 912 5.0
160 1087 5.0
161 497 4.0
161 42 5.0
161 608 3.0
161 685 4.0
161 786 5.0
161 475 4.0
161 565 4.0
162 840 5.0
162 42 5.0
162 987 5.0
162 1087 5.0
162 1089 5.0
162 1142 5.0
162 788 5.0
163 797 5.0
163 813 5.0
163 383 5.0
163 416 4.0
163 649 5.0
163 931 5.0
163 817 4.0
164 448 5.0
164 390 4.0
164 593 5.0
164 465 5.0
164 650 5.0
164 565 5.0
164 716 5.0
165 322 5.0
165 489 5.0
165 845 5.0
165 812 5.0
165 854 4.0
165 42 5.0
165 492 4.0
166 176 5.0
166 42 4.0
166 60 5.0
166 119 5.0
166 401 4.0
166 440 1.0
166 564 1.0
167 309 4.0
167 397 5.0
167 533 4.0
167 42 3.0
167 840 3.0
167 1130 5.0
167 1158 4.0
168 320 4.0
168 502 5.0
168 561 4.0
168 42 5.0
168 729 4.0
168 1095 4.0
168 748 5.0
169 512 4.0
169 90 4.0
169 43 4.0
169 597 5.0
169 645 1.0
169 601 5.0
169 727 5.0
170 75 5.0
170 43 5.0
170 650 5.0
170 339 4.0
170 395 5.0
170 519 5.0
170 551 5.0
171 95 3.0
171 91 3.0
171 94 3.0
171 43 4.0
171 265 4.0
171 120 3.0
171 179 3.0
172 827 4.0
172 831 2.0
172 972 5.0
172 912 5.0
172 43 5.0
172 729 4.0
172 756 4.0
173 729 5.0
173 813 5.0
173 723 5.0
173 825 5.0
173 44 5.0
173 64 5.0
173 814 5.0
174 421 5.0
174 885 5.0
174 44 4.0
174 673 3.0
174 60 4.0
174 356 4.0
174 1195 4.0
175 49 5.0
175 45 5.0
175 653 5.0
175 530 5.0
175 407 5.0
175 473 5.0
175 719 5.0
176 603 5.0
176 886 5.0
176 249 5.0
176 101 5.0
176 321 5.0
176 726 3.0
176 78 5.0
177 782 5.0
177 46 5.0
177 60 5.0
177 119 5.0
177 147 4.0
177 321 3.0
177 788 5.0
178 493 3.0
178 1111 5.0
178 470 5.0
178 728 4.0
178 1137 4.0
178 92 4.0
178 46 5.0
179 46 5.0
179 630 5.0
179 850 5.0
179 682 5.0
179 585 5.0
179 490 5.0
179 319 4.0
180 1112 5.0
180 1203 5.0
180 46 5.0
180 1297 5.0
180 1186 5.0
180 1332 4.0
180 1344 5.0
181 78 5.0
181 53 5.0
181 87 5.0
181 729 4.0
181 101 4.0
181 46 4.0
181 266 4.0
182 649 4.0
182 797 5.0
182 832 4.0
182 836 4.0
182 862 5.0
182 46 4.0
182 1013 5.0
183 46 5.0
183 610 5.0
183 603 5.0
183 630 5.0
183 596 5.0
183 198 4.0
183 147 4.0
184 46 1.0
184 1109 1.0
184 1297 1.0
184 1140 1.0
184 529 1.0
184 798 1.0
184 961 1.0
185 239 2.0
185 191 5.0
185 287 5.0
185 47 4.0
185 288 5.0
185 319 2.0
185 346 1.0
186 634 4.0
186 298 3.0
186 590 5.0
186 367 5.0
186 570 5.0
186 564 4.0
186 647 4.0
187 88 4.0
187 48 4.0
187 721 5.0
187 926 5.0
187 1023 4.0
187 902 4.0
187 681 4.0
188 69 3.0
188 48 5.0
188 177 5.0
188 172 4.0
188 116 4.0
188 221 3.0
188 232 5.0
189 50 4.0
189 48 4.0
189 81 4.0
189 107 4.0
189 86 5.0
189 85 5.0
189 51 5.0
190 48 5.0
190 568 4.0
190 49 5.0
190 410 5.0
190 204 5.0
190 411 5.0
190 569 5.0
191 410 4.0
191 536 3.0
191 321 3.0
191 600 5.0
191 50 5.0
191 107 5.0
191 555 3.0
192 340 4.0
192 415 5.0
192 838 5.0
192 636 3.0
192 347 4.0
192 348 4.0
192 844 5.0
193 62 5.0
193 50 5.0
193 61 2.0
193 107 5.0
193 121 5.0
193 305 5.0
193 482 5.0
194 539 5.0
194 545 5.0
194 233 4.0
194 470 4.0
194 120 5.0
194 557 5.0
194 91 5.0
195 120 5.0
195 421 5.0
195 288 3.0
195 797 5.0
195 52 5.0
195 53 5.0
195 603 5.0
196 967 5.0
196 1034 3.0
196 1097 5.0
196 1154 5.0
196 1217 5.0
196 52 5.0
196 87 5.0
197 645 4.0
197 779 4.0
197 817 3.0
197 831 5.0
197 845 5.0
197 52 5.0
197 1001 4.0
198 127 4.0
198 172 3.0
198 272 4.0
198 425 2.0
198 436 3.0
198 53 4.0
198 924 3.0
199 239 4.0
199 158 4.0
199 191 5.0
199 238 4.0
199 218 5.0
199 243 4.0
199 426 4.0
200 582 2.0
200 784 2.0
200 644 1.0
200 710 5.0
200 759 4.0
200 425 5.0
200 156 5.0
201 53 4.0
201 87 4.0
201 172 1.0
201 330 3.0
201 349 4.0
201 405 2.0
201 456 4.0
202 59 3.0
202 54 4.0
202 64 4.0
202 603 4.0
202 120 4.0
202 403 4.0
202 756 4.0
203 598 4.0
203 356 5.0
203 309 5.0
203 469 5.0
203 1112 5.0
203 736 5.0
203 119 5.0
204 439 2.0
204 516 4.0
204 288 5.0
204 91 5.0
204 391 3.0
204 411 2.0
204 603 4.0
205 234 5.0
205 176 5.0
205 320 4.0
205 55 1.0
205 728 2.0
205 506 1.0
205 358 4.0
206 55 5.0
206 237 4.0
206 287 3.0
206 305 4.0
206 321 4.0
206 273 4.0
206 246 5.0
207 88 5.0
207 234 5.0
207 55 5.0
207 596 5.0
207 598 5.0
207 356 4.0
207 470 5.0
208 267 3.0
208 120 2.0
208 436 3.0
208 425 3.0
208 518 3.0
208 55 3.0
208 603 3.0
209 320 2.0
209 472 4.0
209 421 5.0
209 749 3.0
209 603 5.0
209 470 4.0
209 55 3.0
210 526 5.0
210 850 4.0
210 328 4.0
210 339 5.0
210 749 4.0
210 1255 5.0
210 55 3.0
211 463 5.0
211 55 5.0
211 1189 5.0
211 1190 5.0
211 551 5.0
211 128 5.0
211 80 4.0
212 488 1.0
212 773 4.0
212 789 5.0
212 857 5.0
212 569 5.0
212 56 4.0
212 417 3.0
213 58 5.0
213 64 1.0
213 101 5.0
213 120 5.0
213 473 5.0
213 727 5.0
213 706 5.0
214 887 5.0
214 1004 5.0
214 975 5.0
214 833 5.0
214 1111 5.0
214 1224 5.0
214 1244 5.0
215 728 5.0
215 750 5.0
215 59 1.0
215 752 5.0
215 783 1.0
215 751 5.0
215 60 5.0
216 842 3.0
216 756 5.0
216 957 4.0
216 59 5.0
216 949 3.0
216 950 4.0
216 1067 4.0
217 221 4.0
217 60 5.0
217 119 5.0
217 446 5.0
217 470 5.0
217 752 5.0
217 393 5.0
218 1013 5.0
218 176 5.0
218 748 5.0
218 736 4.0
218 207 4.0
218 1155 3.0
218 60 5.0
219 511 3.0
219 739 5.0
219 797 5.0
219 664 5.0
219 736 5.0
219 750 5.0
219 852 3.0
220 341 5.0
220 60 5.0
220 119 5.0
220 223 5.0
220 339 5.0
220 447 5.0
220 311 5.0
221 421 5.0
221 60 4.0
221 912 4.0
221 311 4.0
221 359 1.0
221 428 4.0
221 682 4.0
222 60 5.0
222 341 5.0
222 311 5.0
222 356 5.0
222 1225 5.0
222 1327 2.0
222 1332 4.0
223 299 5.0
223 300 5.0
223 850 5.0
223 339 5.0
223 347 5.0
223 585 5.0
223 328 5.0
224 181 5.0
224 249 5.0
224 428 4.0
224 60 5.0
224 119 5.0
224 176 5.0
224 887 5.0
225 756 4.0
225 764 4.0
225 828 3.0
225 852 4.0
225 359 3.0
225 60 5.0
225 724 4.0
226 60 5.0
226 799 3.0
226 1111 4.0
226 311 5.0
226 503 4.0
226 887 5.0
226 686 5.0
227 545 4.0
227 470 4.0
227 421 4.0
227 603 4.0
227 912 4.0
227 60 3.0
227 119 4.0
228 60 5.0
228 1185 2.0
228 1289 5.0
228 289 5.0
228 393 3.0
228 446 5.0
228 772 4.0
229 912 5.0
229 470 5.0
229 60 5.0
229 119 5.0
229 321 5.0
229 464 5.0
229 719 5.0
230 912 5.0
230 812 5.0
230 826 5.0
230 756 5.0
230 813 1.0
230 749 5.0
230 80 5.0
231 446 5.0
231 520 2.0
231 486 4.0
231 350 5.0
231 454 5.0
231 748 5.0
231 829 5.0
232 523 1.0
232 611 5.0
232 61 4.0
232 802 5.0
232 852 4.0
232 1188 5.0
232 80 5.0
233 63 5.0
233 201 5.0
233 829 5.0
233 852 5.0
233 765 5.0
233 1332 5.0
233 1338 5.0
234 64 5.0
234 69 4.0
234 116 4.0
234 199 5.0
234 319 3.0
234 616 3.0
234 518 4.0
235 64 5.0
235 91 5.0
235 139 5.0
235 155 5.0
235 118 5.0
235 120 5.0
235 166 4.0
236 115 5.0
236 64 5.0
236 246 5.0
236 802 5.0
236 825 5.0
236 746 5.0
236 1145 5.0
237 306 5.0
237 488 4.0
237 591 4.0
237 70 5.0
237 64 5.0
237 360 4.0
237 520 4.0
238 64 5.0
238 139 5.0
238 433 3.0
238 489 5.0
238 305 5.0
238 784 1.0
238 688 3.0
239 179 5.0
239 147 4.0
239 91 5.0
239 207 4.0
239 64 2.0
239 330 4.0
239 346 3.0
240 501 4.0
240 487 5.0
240 64 5.0
240 594 5.0
240 666 4.0
240 223 5.0
240 279 5.0
241 67 5.0
241 342 5.0
241 750 5.0
241 819 3.0
241 912 5.0
241 943 5.0
241 1139 5.0
242 352 5.0
242 601 4.0
242 68 5.0
242 99 4.0
242 720 5.0
242 1002 5.0
242 208 5.0
243 69 4.0
243 116 4.0
243 199 4.0
243 339 5.0
243 421 5.0
243 603 5.0
243 912 5.0
244 69 5.0
244 116 5.0
244 185 5.0
244 199 5.0
244 828 5.0
244 1159 4.0
244 1189 5.0
245 138 5.0
245 143 4.0
245 320 5.0
245 193 3.0
245 470 5.0
245 258 5.0
245 70 5.0
246 246 4.0
246 75 4.0
246 855 3.0
246 952 4.0
246 270 4.0
246 977 4.0
246 314 4.0
247 802 3.0
247 815 5.0
247 1206 5.0
247 1250 4.0
247 1244 5.0
247 79 4.0
247 680 4.0
248 77 5.0
248 111 5.0
248 173 5.0
248 516 4.0
248 145 4.0
248 1111 2.0
248 1209 5.0
249 236 1.0
249 190 4.0
249 234 4.0
249 179 4.0
249 209 5.0
249 237 3.0
249 207 5.0
250 749 4.0
250 372 5.0
250 848 5.0
250 541 5.0
250 817 5.0
250 981 5.0
250 466 3.0
251 395 5.0
251 138 5.0
251 519 5.0
251 503 3.0
251 421 5.0
251 447 4.0
251 603 5.0
252 746 5.0
252 629 5.0
252 1131 5.0
252 630 5.0
252 1112 5.0
252 79 5.0
252 1206 5.0
253 80 5.0
253 510 4.0
253 88 5.0
253 119 5.0
253 486 5.0
253 748 5.0
253 912 5.0
254 513 5.0
254 420 5.0
254 589 5.0
254 727 5.0
254 958 5.0
254 1013 5.0
254 82 5.0
255 83 5.0
255 650 5.0
255 114 4.0
255 346 4.0
255 580 4.0
255 932 5.0
255 178 3.0
256 84 5.0
256 867 3.0
256 710 4.0
256 924 5.0
256 1081 4.0
256 1157 5.0
256 900 5.0
257 483 4.0
257 601 4.0
257 627 4.0
257 609 5.0
257 603 4.0
257 611 4.0
257 712 5.0
258 504 5.0
258 665 5.0
258 999 5.0
258 1332 4.0
258 86 5.0
258 323 4.0
258 1354 5.0
259 221 5.0
259 447 4.0
259 351 5.0
259 393 5.0
259 1334 1.0
259 1338 2.0
259 1339 2.0
260 95 4.0
260 1111 1.0
260 1228 3.0
260 1332 2.0
260 1340 3.0
260 1040 3.0
260 1249 1.0
261 267 5.0
261 89 4.0
261 170 4.0
261 145 3.0
261 214 5.0
261 233 4.0
261 242 4.0
262 353 3.0
262 405 3.0
262 214 4.0
262 370 4.0
262 582 3.0
262 261 4.0
262 639 4.0
263 349 5.0
263 286 4.0
263 89 4.0
263 330 4.0
263 433 5.0
263 261 3.0
263 436 3.0
264 95 3.0
264 130 3.0
264 90 1.0
264 1156 1.0
264 1195 1.0
264 1111 5.0
264 406 5.0
265 95 5.0
265 92 4.0
265 90 5.0
265 145 4.0
265 172 4.0
265 197 4.0
265 362 5.0
266 448 5.0
266 390 4.0
266 494 4.0
266 440 3.0
266 922 3.0
266 593 2.0
266 229 2.0
267 861 2.0
267 1235 1.0
267 90 3.0
267 1113 3.0
267 1040 3.0
267 468 3.0
267 1310 3.0
268 643 4.0
268 828 4.0
268 1033 4.0
268 1107 3.0
268 1134 4.0
268 852 4.0
268 1201 3.0
269 91 5.0
269 208 4.0
269 497 3.0
269 714 3.0
269 789 5.0
269 825 4.0
269 957 3.0
270 829 4.0
270 832 4.0
270 834 5.0
270 1006 5.0
270 1040 5.0
270 91 5.0
270 1033 4.0
271 155 3.0
271 120 3.0
271 208 4.0
271 91 5.0
271 116 3.0
271 119 4.0
271 112 4.0
272 91 5.0
272 649 5.0
272 681 5.0
272 914 5.0
272 828 5.0
272 258 4.0
272 773 3.0
273 741 3.0
273 459 5.0
273 873 2.0
273 91 5.0
273 799 2.0
273 370 3.0
273 709 3.0
274 91 5.0
274 341 4.0
274 140 5.0
274 141 5.0
274 173 4.0
274 658 5.0
274 650 4.0
275 91 1.0
275 446 5.0
275 509 2.0
275 510 3.0
275 512 2.0
275 401 5.0
275 775 4.0
276 852 4.0
276 813 5.0
276 987 5.0
276 92 5.0
276 1140 5.0
276 1225 4.0
276 1075 4.0
277 95 4.0
277 94 2.0
277 239 4.0
277 197 4.0
277 265 5.0
277 425 4.0
277 436 4.0
278 94 5.0
278 186 5.0
278 197 5.0
278 405 5.0
278 425 2.0
278 436 5.0
278 218 5.0
279 806 3.0
279 717 4.0
279 94 1.0
279 488 1.0
279 917 1.0
279 658 5.0
279 457 5.0
280 94 2.0
280 239 4.0
280 95 4.0
280 219 3.0
280 158 4.0
280 172 3.0
280 319 3.0
281 158 4.0
281 145 4.0
281 238 1.0
281 95 4.0
281 233 3.0
281 219 3.0
281 924 4.0
282 96 5.0
282 815 5.0
282 549 5.0
282 458 5.0
282 764 5.0
282 603 5.0
282 518 4.0
283 727 4.0
283 721 5.0
283 155 5.0
283 1142 5.0
283 1158 5.0
283 1214 5.0
283 96 5.0
284 393 5.0
284 1016 5.0
284 1031 5.0
284 707 5.0
284 467 5.0
284 1098 5.0
284 903 5.0
285 364 5.0
285 813 5.0
285 434 3.0
285 744 4.0
285 912 3.0
285 996 5.0
285 747 5.0
286 207 5.0
286 212 4.0
286 352 5.0
286 99 5.0
286 720 5.0
286 768 5.0
286 869 5.0
287 800 5.0
287 140 5.0
287 141 5.0
287 194 5.0
287 563 5.0
287 381 5.0
287 774 5.0
288 101 1.0
288 976 4.0
288 428 4.0
288 1112 3.0
288 1137 3.0
288 682 5.0
288 1190 5.0
289 815 5.0
289 952 4.0
289 677 5.0
289 1237 5.0
289 102 5.0
289 820 5.0
289 826 3.0
290 852 4.0
290 810 1.0
290 815 2.0
290 513 4.0
290 736 2.0
290 119 5.0
290 1370 1.0
291 103 2.0
291 911 2.0
291 621 5.0
291 675 1.0
291 200 1.0
291 694 5.0
291 955 3.0
292 193 5.0
292 333 5.0
292 1172 5.0
292 1091 5.0
292 1146 5.0
292 560 4.0
292 955 5.0
293 1236 4.0
293 299 5.0
293 1059 3.0
293 300 4.0
293 899 5.0
293 1177 3.0
293 236 3.0
294 631 5.0
294 1096 2.0
294 1111 4.0
294 1140 2.0
294 1214 5.0
294 472 4.0
294 1317 4.0
295 518 5.0
295 843 3.0
295 341 5.0
295 242 5.0
295 705 1.0
295 405 1.0
295 108 4.0
296 702 5.0
296 453 3.0
296 630 5.0
296 253 4.0
296 615 4.0
296 108 3.0
296 125 4.0
297 798 5.0
297 815 5.0
297 832 5.0
297 752 5.0
297 472 5.0
297 749 5.0
297 109 5.0
298 382 4.0
298 1102 4.0
298 441 4.0
298 620 5.0
298 603 5.0
298 915 5.0
298 962 5.0
299 627 4.0
299 513 4.0
299 716 3.0
299 729 4.0
299 110 5.0
299 807 4.0
299 927 4.0
300 110 5.0
300 299 5.0
300 747 5.0
300 1247 4.0
300 995 4.0
300 744 4.0
300 1354 4.0
301 749 4.0
301 470 5.0
301 728 5.0
301 110 5.0
301 486 5.0
301 829 5.0
301 1111 4.0
302 741 2.0
302 137 5.0
302 198 5.0
302 513 5.0
302 232 4.0
302 206 5.0
302 363 5.0
303 436 3.0
303 890 5.0
303 566 5.0
303 119 5.0
303 984 5.0
303 469 4.0
303 728 5.0
304 169 4.0
304 119 5.0
304 603 5.0
304 549 5.0
304 658 5.0
304 749 5.0
304 358 4.0
305 421 5.0
305 341 4.0
305 603 5.0
305 959 5.0
305 739 4.0
305 119 5.0
305 1334 1.0
306 610 5.0
306 299 5.0
306 300 5.0
306 181 5.0
306 249 5.0
306 339 5.0
306 609 5.0
307 421 5.0
307 1059 4.0
307 1057 5.0
307 797 5.0
307 119 5.0
307 1338 2.0
307 1339 5.0
308 119 5.0
308 912 4.0
308 193 4.0
308 320 5.0
308 588 4.0
308 728 5.0
308 1018 5.0
309 1059 1.0
309 119 3.0
309 503 4.0
309 887 4.0
309 817 3.0
309 311 4.0
309 490 4.0
310 548 4.0
310 764 5.0
310 119 5.0
310 421 4.0
310 249 4.0
310 557 4.0
310 673 4.0
311 155 3.0
311 119 5.0
311 410 5.0
311 472 5.0
311 601 4.0
311 812 5.0
311 136 5.0
312 518 4.0
312 1160 1.0
312 428 4.0
312 682 4.0
312 119 5.0
312 629 5.0
312 1147 5.0
313 120 5.0
313 797 1.0
313 756 1.0
313 987 5.0
313 1111 1.0
313 1270 1.0
313 1189 1.0
314 120 5.0
314 208 5.0
314 797 5.0
314 1009 2.0
314 750 5.0
314 1060 4.0
314 912 4.0
315 267 5.0
315 347 5.0
315 428 4.0
315 629 4.0
315 225 4.0
315 120 4.0
315 356 4.0
316 158 4.0
316 120 5.0
316 174 4.0
316 191 4.0
316 197 4.0
316 206 5.0
316 214 5.0
317 1130 4.0
317 721 2.0
317 850 5.0
317 857 3.0
317 126 5.0
317 217 4.0
317 556 3.0
318 127 5.0
318 470 4.0
318 728 4.0
318 846 5.0
318 1058 3.0
318 1111 1.0
318 1121 5.0
319 128 5.0
319 456 4.0
319 562 3.0
319 729 3.0
319 709 2.0
319 813 5.0
319 956 4.0
320 303 5.0
320 486 5.0
320 347 5.0
320 176 5.0
320 147 5.0
320 207 5.0
320 128 5.0
321 129 5.0
321 815 5.0
321 1131 4.0
321 1334 3.0
321 1339 4.0
321 1332 2.0
321 1338 5.0
322 130 2.0
322 155 4.0
322 828 5.0
322 802 1.0
322 952 1.0
322 1086 1.0
322 1218 1.0
323 132 5.0
323 829 5.0
323 445 3.0
323 432 5.0
323 815 5.0
323 852 5.0
323 840 4.0
324 135 5.0
324 418 5.0
324 484 5.0
324 620 5.0
324 329 4.0
324 345 5.0
324 716 5.0
325 602 4.0
325 875 4.0
325 830 4.0
325 1006 4.0
325 852 4.0
325 1111 3.0
325 136 4.0
326 829 5.0
326 137 4.0
326 830 4.0
326 1095 3.0
326 1111 3.0
326 1238 4.0
326 951 2.0
327 374 5.0
327 377 5.0
327 380 5.0
327 255 4.0
327 138 5.0
327 253 5.0
327 608 4.0
328 717 4.0
328 666 4.0
328 617 1.0
328 940 4.0
328 628 1.0
328 1007 5.0
328 138 4.0
329 802 5.0
329 815 5.0
329 661 2.0
329 320 5.0
329 423 5.0
329 138 4.0
329 1130 5.0
330 428 4.0
330 606 3.0
330 341 5.0
330 138 4.0
330 176 4.0
330 356 4.0
330 250 5.0
331 854 1.0
331 1131 5.0
331 138 5.0
331 1184 2.0
331 1173 5.0
331 1202 2.0
331 1201 5.0
332 138 5.0
332 339 5.0
332 143 5.0
332 472 4.0
332 193 5.0
332 321 5.0
332 333 4.0
333 139 5.0
333 322 5.0
333 536 4.0
333 756 5.0
333 772 5.0
333 828 5.0
333 832 5.0
334 712 3.0
334 854 5.0
334 139 5.0
334 155 4.0
334 305 4.0
334 951 5.0
334 1117 3.0
335 719 5.0
335 728 5.0
335 470 5.0
335 736 2.0
335 912 5.0
335 941 5.0
335 143 5.0
336 239 4.0
336 214 3.0
336 238 3.0
336 145 4.0
336 745 4.0
336 709 4.0
336 771 1.0
337 252 5.0
337 472 5.0
337 749 5.0
337 147 5.0
337 207 5.0
337 311 4.0
337 428 5.0
338 695 5.0
338 320 5.0
338 1111 5.0
338 249 5.0
338 374 3.0
338 375 3.0
338 181 5.0
339 552 5.0
339 548 5.0
339 987 4.0
339 912 3.0
339 728 3.0
339 497 2.0
339 961 4.0
340 873 2.0
340 432 5.0
340 664 5.0
340 813 5.0
340 1096 5.0
340 147 5.0
340 207 4.0
341 149 5.0
341 150 5.0
341 151 5.0
341 152 5.0
341 153 5.0
341 283 5.0
341 284 5.0
342 799 4.0
342 214 3.0
342 576 4.0
342 892 4.0
342 154 4.0
342 717 3.0
342 951 2.0
343 240 3.0
343 154 3.0
343 299 4.0
343 300 5.0
343 176 4.0
343 215 3.0
343 1077 1.0
344 246 4.0
344 813 4.0
344 828 3.0
344 832 2.0
344 356 4.0
344 772 4.0
344 208 4.0
345 311 3.0
345 155 4.0
345 341 4.0
345 756 4.0
345 852 4.0
345 241 2.0
345 857 4.0
346 156 3.0
346 561 3.0
346 811 4.0
346 808 4.0
346 690 2.0
346 918 3.0
346 973 3.0
347 172 3.0
347 349 4.0
347 433 4.0
347 160 4.0
347 310 5.0
347 436 3.0
347 643 4.0
348 543 4.0
348 450 4.0
348 582 4.0
348 385 4.0
348 456 5.0
348 160 5.0
348 459 5.0
349 227 5.0
349 361 5.0
349 466 5.0
349 494 5.0
349 536 5.0
349 711 3.0
349 722 5.0
350 825 5.0
350 918 4.0
350 162 5.0
350 681 4.0
350 756 4.0
350 817 4.0
350 797 4.0
351 779 5.0
351 664 4.0
351 764 4.0
351 772 5.0
351 162 5.0
351 326 5.0
351 393 5.0
352 282 5.0
352 734 5.0
352 735 5.0
352 317 5.0
352 244 5.0
352 245 5.0
352 414 3.0
353 239 5.0
353 197 3.0
353 346 4.0
353 496 5.0
353 272 3.0
353 452 4.0
353 168 3.0
354 900 5.0
354 924 4.0
354 1051 5.0
354 1056 4.0
354 1057 2.0
354 1058 5.0
354 168 4.0
355 492 1.0
355 616 2.0
355 533 5.0
355 601 4.0
355 171 4.0
355 476 4.0
355 258 5.0
356 286 4.0
356 172 4.0
356 576 3.0
356 655 3.0
356 425 4.0
356 436 4.0
356 759 4.0
357 172 3.0
357 433 5.0
357 456 5.0
357 496 5.0
357 286 5.0
357 1134 5.0
357 1361 3.0
358 739 4.0
358 829 4.0
358 797 4.0
358 173 4.0
358 421 4.0
358 912 5.0
358 827 4.0
359 174 4.0
359 242 4.0
359 279 5.0
359 286 3.0
359 330 4.0
359 363 4.0
359 334 4.0
360 174 5.0
360 349 5.0
360 283 5.0
360 509 5.0
360 299 5.0
360 582 1.0
360 875 2.0
361 830 3.0
361 571 5.0
361 1259 3.0
361 456 5.0
361 174 5.0
361 702 5.0
361 666 5.0
362 845 5.0
362 175 4.0
362 1049 4.0
362 1051 4.0
362 259 3.0
362 972 5.0
362 1232 5.0
363 401 5.0
363 513 5.0
363 1090 5.0
363 1095 5.0
363 176 5.0
363 756 5.0
363 503 5.0
364 840 5.0
364 176 5.0
364 470 5.0
364 764 2.0
364 608 2.0
364 932 4.0
364 595 5.0
365 226 2.0
365 649 2.0
365 356 5.0
365 176 4.0
365 861 5.0
365 421 5.0
365 912 5.0
366 603 5.0
366 765 5.0
366 813 5.0
366 176 3.0
366 555 5.0
366 764 5.0
366 721 5.0
367 472 5.0
367 764 5.0
367 1168 3.0
367 850 5.0
367 176 4.0
367 490 5.0
367 1064 3.0
368 510 5.0
368 721 5.0
368 681 4.0
368 746 5.0
368 828 5.0
368 817 5.0
368 712 5.0
369 728 4.0
369 815 5.0
369 431 5.0
369 664 5.0
369 421 5.0
369 1142 4.0
369 1200 4.0
370 341 5.0
370 361 5.0
370 410 5.0
370 191 5.0
370 473 5.0
370 176 5.0
370 206 5.0
371 672 5.0
371 568 4.0
371 324 5.0
371 339 5.0
371 630 5.0
371 670 5.0
371 176 5.0
372 341 5.0
372 828 5.0
372 470 3.0
372 968 4.0
372 1173 4.0
372 952 5.0
372 503 3.0
373 1111 5.0
373 756 4.0
373 1095 4.0
373 693 4.0
373 176 4.0
373 1332 5.0
373 421 4.0
374 390 3.0
374 177 4.0
374 467 3.0
374 649 2.0
374 421 5.0
374 620 3.0
374 311 4.0
375 780 5.0
375 392 5.0
375 715 4.0
375 179 1.0
375 867 1.0
375 928 2.0
375 924 2.0
376 322 4.0
376 316 3.0
376 567 5.0
376 729 4.0
376 372 3.0
376 756 4.0
376 711 3.0
377 181 5.0
377 1282 5.0
377 1348 4.0
377 1189 5.0
377 1399 2.0
377 1365 3.0
377 1356 2.0
378 191 5.0
378 217 4.0
378 182 3.0
378 605 5.0
378 601 4.0
378 649 3.0
378 422 5.0
379 221 2.0
379 772 4.0
379 852 5.0
379 830 5.0
379 456 4.0
379 1013 5.0
379 764 4.0
380 183 5.0
380 1095 5.0
380 211 5.0
380 660 5.0
380 422 5.0
380 623 4.0
380 284 5.0
381 728 3.0
381 185 3.0
381 975 3.0
381 1111 3.0
381 1117 3.0
381 1300 4.0
381 1332 3.0
382 185 2.0
382 773 3.0
382 1115 4.0
382 1137 3.0
382 1200 5.0
382 1196 3.0
382 1203 4.0
383 828 1.0
383 267 2.0
383 634 4.0
383 320 3.0
383 1072 5.0
383 187 5.0
383 1224 5.0
384 439 5.0
384 189 5.0
384 573 5.0
384 800 5.0
384 271 5.0
384 282 5.0
384 291 5.0
385 1208 5.0
385 189 4.0
385 1253 5.0
385 1173 5.0
385 1239 5.0
385 1323 4.0
385 1332 3.0
386 751 1.0
386 889 4.0
386 764 4.0
386 191 4.0
386 961 3.0
386 1212 5.0
386 1060 1.0
387 791 1.0
387 309 5.0
387 493 5.0
387 1110 4.0
387 191 4.0
387 1059 5.0
387 374 5.0
388 833 1.0
388 1282 3.0
388 1252 3.0
388 192 4.0
388 1125 3.0
388 1308 3.0
388 1286 1.0
389 197 3.0
389 383 3.0
389 285 3.0
389 196 4.0
389 257 2.0
389 222 4.0
389 329 3.0
390 608 1.0
390 1240 4.0
390 1140 5.0
390 1060 5.0
390 1224 4.0
390 1262 5.0
390 197 2.0
391 473 5.0
391 389 4.0
391 199 5.0
391 204 5.0
391 521 5.0
391 736 5.0
391 470 5.0
392 757 4.0
392 200 2.0
392 871 5.0
392 1079 4.0
392 1091 3.0
392 1146 5.0
392 1172 4.0
393 201 3.0
393 299 5.0
393 1087 3.0
393 1134 3.0
393 1157 4.0
393 625 4.0
393 301 4.0
394 202 4.0
394 390 5.0
394 325 3.0
394 494 5.0
394 570 4.0
394 647 4.0
394 602 5.0
395 492 3.0
395 207 5.0
395 355 5.0
395 792 5.0
395 874 5.0
395 1292 4.0
395 1125 5.0
396 266 5.0
396 207 5.0
396 309 4.0
396 355 5.0
396 454 5.0
396 469 5.0
396 470 5.0
397 209 5.0
397 797 5.0
397 813 5.0
397 855 5.0
397 441 5.0
397 620 5.0
397 649 5.0
398 345 5.0
398 861 5.0
398 1051 5.0
398 1041 5.0
398 437 5.0
398 336 5.0
398 293 5.0
399 1057 3.0
399 857 5.0
399 630 5.0
399 1059 5.0
399 214 2.0
399 321 5.0
399 464 4.0
400 214 3.0
400 518 2.0
400 433 4.0
400 330 4.0
400 1111 3.0
400 716 1.0
400 1058 1.0
401 630 4.0
401 742 4.0
401 912 5.0
401 850 4.0
401 214 4.0
401 311 4.0
401 823 4.0
402 784 1.0
402 930 4.0
402 214 2.0
402 812 5.0
402 813 5.0
402 852 3.0
402 845 5.0
403 214 2.0
403 718 4.0
403 667 5.0
403 741 2.0
403 396 4.0
403 233 5.0
403 265 3.0
404 356 5.0
404 630 5.0
404 249 5.0
404 1152 5.0
404 585 5.0
404 878 5.0
404 217 5.0
405 219 4.0
405 626 3.0
405 577 2.0
405 614 3.0
405 576 4.0
405 265 5.0
405 542 4.0
406 220 3.0
406 482 3.0
406 517 5.0
406 574 3.0
406 747 5.0
406 752 3.0
406 797 4.0
407 221 4.0
407 536 4.0
407 1022 4.0
407 756 4.0
407 1139 5.0
407 760 2.0
407 631 4.0
408 227 5.0
408 536 5.0
408 221 5.0
408 351 5.0
408 486 5.0
408 305 5.0
408 446 5.0
409 813 5.0
409 364 5.0
409 949 5.0
409 957 4.0
409 848 5.0
409 442 5.0
409 950 5.0
410 603 4.0
410 813 5.0
410 221 2.0
410 951 3.0
410 1095 3.0
410 1111 3.0
410 1225 5.0
411 991 4.0
411 736 3.0
411 300 5.0
411 1111 4.0
411 593 5.0
411 908 4.0
411 580 3.0
412 997 5.0
412 980 5.0
412 470 1.0
412 222 5.0
412 341 3.0
412 661 5.0
412 912 5.0
413 285 3.0
413 700 1.0
413 643 3.0
413 223 4.0
413 912 5.0
413 431 4.0
413 355 4.0
414 511 5.0
414 798 5.0
414 223 4.0
414 374 5.0
414 1060 4.0
414 1216 4.0
414 1233 3.0
415 347 5.0
415 321 5.0
415 463 5.0
415 348 5.0
415 253 5.0
415 303 5.0
415 252 5.0
416 349 3.0
416 330 4.0
416 729 4.0
416 492 5.0
416 837 1.0
416 795 5.0
416 643 3.0
417 757 5.0
417 393 5.0
417 724 5.0
417 729 5.0
417 772 5.0
417 773 2.0
417 809 3.0
418 302 3.0
418 489 5.0
418 627 2.0
418 326 2.0
418 361 3.0
418 227 3.0
418 611 5.0
419 322 5.0
419 410 4.0
419 227 4.0
419 361 4.0
419 536 5.0
419 489 4.0
419 779 4.0
420 227 5.0
420 232 5.0
420 322 5.0
420 361 5.0
420 489 5.0
420 528 5.0
420 536 5.0
421 729 5.0
421 229 5.0
421 728 5.0
421 649 5.0
421 859 5.0
421 408 3.0
421 398 5.0
422 232 2.0
422 708 1.0
422 843 1.0
422 810 5.0
422 862 5.0
422 933 1.0
422 966 1.0
423 756 5.0
423 603 5.0
423 233 5.0
423 1234 5.0
423 1239 5.0
423 1258 4.0
423 1259 5.0
424 265 3.0
424 315 3.0
424 385 2.0
424 425 4.0
424 459 4.0
424 436 3.0
424 496 4.0
425 233 5.0
425 416 5.0
425 911 5.0
425 1042 1.0
425 1095 1.0
425 1134 1.0
425 1179 5.0
426 370 5.0
426 290 4.0
426 604 5.0
426 501 4.0
426 238 4.0
426 584 5.0
426 717 5.0
427 1281 3.0
427 239 4.0
427 674 4.0
427 797 2.0
427 862 4.0
427 912 5.0
427 1072 5.0
428 772 5.0
428 1184 5.0
428 1220 5.0
428 239 5.0
428 1183 5.0
428 1185 3.0
428 1189 5.0
429 614 1.0
429 709 1.0
429 813 5.0
429 240 5.0
429 1050 1.0
429 1056 3.0
429 1057 3.0
430 667 1.0
430 900 2.0
430 242 2.0
430 456 3.0
430 813 2.0
430 912 4.0
430 1101 2.0
431 970 5.0
431 1063 5.0
431 246 5.0
431 517 5.0
431 1027 5.0
431 255 5.0
431 786 5.0
432 751 5.0
432 943 4.0
432 600 5.0
432 756 5.0
432 517 5.0
432 764 5.0
432 246 5.0
433 246 5.0
433 255 5.0
433 268 5.0
433 544 1.0
433 659 5.0
433 676 5.0
433 677 5.0
434 620 5.0
434 781 5.0
434 247 2.0
434 841 5.0
434 925 5.0
434 341 5.0
434 249 5.0
435 494 4.0
435 590 3.0
435 992 3.0
435 311 4.0
435 1025 3.0
435 249 5.0
435 608 3.0
436 249 5.0
436 1182 5.0
436 253 5.0
436 782 3.0
436 1366 5.0
436 1152 5.0
436 1302 5.0
437 299 4.0
437 395 5.0
437 347 5.0
437 1095 4.0
437 428 3.0
437 682 4.0
437 1215 4.0
438 370 5.0
438 641 2.0
438 395 5.0
438 610 5.0
438 249 5.0
438 437 5.0
438 1168 3.0
439 603 5.0
439 912 5.0
439 250 5.0
439 251 5.0
439 649 5.0
439 829 5.0
439 1059 4.0
440 772 2.0
440 802 3.0
440 393 4.0
440 728 3.0
440 815 5.0
440 756 3.0
440 470 4.0
441 470 5.0
441 860 5.0
441 918 5.0
441 447 4.0
441 1109 5.0
441 254 5.0
441 1111 5.0
442 343 5.0
442 254 5.0
442 418 5.0
442 1058 5.0
442 1059 3.0
442 1095 5.0
442 1327 5.0
443 269 4.0
443 461 5.0
443 414 5.0
443 254 5.0
443 365 5.0
443 585 4.0
443 428 5.0
444 750 5.0
444 483 5.0
444 533 5.0
444 845 5.0
444 854 5.0
444 746 5.0
444 891 5.0
445 797 4.0
445 831 5.0
445 259 5.0
445 912 5.0
445 987 5.0
445 1006 5.0
445 1224 5.0
446 322 5.0
446 472 5.0
446 356 5.0
446 261 4.0
446 533 5.0
446 863 5.0
446 1142 5.0
447 266 5.0
447 305 5.0
447 489 5.0
447 812 5.0
447 522 5.0
447 721 5.0
447 750 5.0
448 267 4.0
448 341 3.0
448 555 4.0
448 432 2.0
448 384 5.0
448 672 3.0
448 739 4.0
449 780 4.0
449 779 4.0
449 1135 4.0
449 1160 3.0
449 1301 4.0
449 1239 3.0
449 421 4.0
450 861 5.0
450 762 5.0
450 1140 5.0
450 999 5.0
450 408 5.0
450 622 5.0
450 1176 5.0
451 748 4.0
451 336 5.0
451 293 4.0
451 868 2.0
451 468 3.0
451 497 4.0
451 756 4.0
452 729 4.0
452 469 4.0
452 986 5.0
452 493 4.0
452 1014 4.0
452 736 4.0
452 1111 4.0
453 342 1.0
453 607 2.0
453 527 5.0
453 763 4.0
453 764 4.0
453 269 5.0
453 712 4.0
454 270 5.0
454 490 5.0
454 733 5.0
454 453 4.0
454 300 4.0
454 326 2.0
454 863 3.0
455 870 4.0
455 779 4.0
455 852 2.0
455 270 5.0
455 1013 3.0
455 1088 1.0
455 1090 3.0
456 273 5.0
456 871 5.0
456 1111 5.0
456 924 4.0
456 1108 3.0
456 1299 3.0
456 1332 2.0
457 517 5.0
457 513 4.0
457 600 5.0
457 645 5.0
457 732 5.0
457 1095 5.0
457 273 5.0
458 1235 1.0
458 1227 1.0
458 1223 1.0
458 621 4.0
458 1069 1.0
458 891 1.0
458 1151 1.0
459 299 5.0
459 337 5.0
459 813 3.0
459 987 4.0
459 1087 5.0
459 280 5.0
459 1239 5.0
460 729 4.0
460 341 2.0
460 1111 4.0
460 498 3.0
460 961 4.0
460 1119 3.0
460 288 4.0
461 289 5.0
461 298 5.0
461 446 5.0
461 393 1.0
461 772 5.0
461 815 5.0
461 1013 5.0
462 298 5.0
462 374 5.0
462 375 5.0
462 376 5.0
462 378 5.0
462 289 5.0
462 506 4.0
463 289 5.0
463 393 5.0
463 601 5.0
463 924 1.0
463 1059 5.0
463 1339 5.0
463 1013 5.0
464 455 5.0
464 290 4.0
464 851 4.0
464 625 5.0
464 792 4.0
464 1352 4.0
464 1361 2.0
465 852 5.0
465 854 5.0
465 797 5.0
465 674 5.0
465 1115 5.0
465 1195 5.0
465 1214 5.0
466 291 5.0
466 469 4.0
466 736 5.0
466 740 4.0
466 421 5.0
466 470 5.0
466 608 5.0
467 945 4.0
467 764 4.0
467 455 5.0
467 992 5.0
467 1025 4.0
467 993 4.0
467 982 4.0
468 721 5.0
468 298 5.0
468 813 5.0
468 585 5.0
468 767 5.0
468 300 5.0
468 878 5.0
469 1152 5.0
469 1060 1.0
469 298 5.0
469 446 5.0
469 1110 2.0
469 1089 5.0
469 1137 5.0
470 400 5.0
470 446 5.0
470 298 5.0
470 471 5.0
470 813 5.0
470 393 5.0
470 765 5.0
471 546 4.0
471 720 4.0
471 749 5.0
471 1010 5.0
471 923 5.0
471 601 4.0
471 1039 3.0
472 420 5.0
472 638 3.0
472 455 5.0
472 299 5.0
472 300 5.0
472 1210 5.0
472 1239 5.0
473 299 4.0
473 785 4.0
473 960 5.0
473 959 5.0
473 746 5.0
473 339 5.0
473 428 4.0
474 574 2.0
474 300 5.0
474 797 5.0
474 1136 4.0
474 1144 2.0
474 1228 4.0
474 648 3.0
475 830 4.0
475 1259 5.0
475 1274 3.0
475 300 4.0
475 610 4.0
475 395 3.0
475 431 2.0
476 301 5.0
476 828 5.0
476 490 2.0
476 872 4.0
476 1013 5.0
476 1040 5.0
476 568 4.0
477 304 5.0
477 374 5.0
477 375 5.0
477 594 5.0
477 377 5.0
477 380 5.0
477 395 5.0
478 306 5.0
478 350 5.0
478 831 4.0
478 849 4.0
478 723 4.0
478 1040 5.0
478 1006 5.0
479 511 5.0
479 769 5.0
479 819 5.0
479 879 2.0
479 687 1.0
479 1097 4.0
479 706 2.0
480 436 5.0
480 729 3.0
480 470 4.0
480 420 3.0
480 638 2.0
480 649 1.0
480 306 1.0
481 729 5.0
481 309 5.0
481 756 5.0
481 748 2.0
481 375 5.0
481 899 5.0
481 378 5.0
482 432 4.0
482 555 4.0
482 664 4.0
482 677 4.0
482 765 4.0
482 802 5.0
482 830 3.0
483 489 4.0
483 719 4.0
483 749 3.0
483 1135 3.0
483 926 5.0
483 326 3.0
483 311 2.0
484 510 3.0
484 1142 3.0
484 1214 2.0
484 1039 2.0
484 1106 4.0
484 1215 2.0
484 311 2.0
485 1058 3.0
485 439 5.0
485 1060 1.0
485 351 2.0
485 829 5.0
485 1111 2.0
485 1217 2.0
486 764 5.0
486 585 5.0
486 311 5.0
486 878 5.0
486 756 5.0
486 1230 5.0
486 1040 5.0
487 318 5.0
487 403 4.0
487 737 5.0
487 312 5.0
487 517 5.0
487 752 5.0
487 814 5.0
488 315 2.0
488 356 3.0
488 802 5.0
488 1206 5.0
488 1232 5.0
488 1365 4.0
488 1328 3.0
489 319 1.0
489 322 5.0
489 410 5.0
489 425 1.0
489 918 5.0
489 812 5.0
489 924 1.0
490 769 5.0
490 589 4.0
490 320 4.0
490 470 5.0
490 728 3.0
490 721 5.0
490 421 5.0
491 523 4.0
491 454 4.0
491 529 5.0
491 736 5.0
491 769 5.0
491 979 5.0
491 815 5.0
492 322 4.0
492 489 5.0
492 600 5.0
492 410 5.0
492 469 5.0
492 729 4.0
492 918 5.0
493 536 5.0
493 322 4.0
493 668 4.0
493 666 5.0
493 472 4.0
493 486 4.0
493 489 4.0
494 744 1.0
494 747 5.0
494 877 4.0
494 711 4.0
494 325 4.0
494 628 4.0
494 1021 4.0
495 398 5.0
495 852 4.0
495 961 5.0
495 326 2.0
495 918 4.0
495 937 4.0
495 957 4.0
496 1195 4.0
496 1142 3.0
496 852 5.0
496 1332 4.0
496 326 2.0
496 1223 2.0
496 1243 5.0
497 852 5.0
497 854 4.0
497 918 4.0
497 829 3.0
497 1109 5.0
497 729 3.0
497 1201 3.0
498 545 4.0
498 802 4.0
498 805 5.0
498 334 4.0
498 330 4.0
498 1239 5.0
498 813 5.0
499 330 4.0
499 456 5.0
499 572 5.0
499 813 5.0
499 1184 3.0
499 1232 5.0
499 1072 5.0
500 513 5.0
500 829 5.0
500 428 5.0
500 330 4.0
500 1070 4.0
500 631 5.0
500 1022 4.0
501 493 4.0
501 468 4.0
501 431 5.0
501 407 4.0
501 473 4.0
501 499 4.0
501 521 4.0
502 1059 5.0
502 488 3.0
502 591 4.0
502 419 5.0
502 858 3.0
502 519 5.0
502 1022 5.0
503 668 4.0
503 643 4.0
503 784 3.0
503 799 3.0
503 872 4.0
503 896 3.0
503 1135 4.0
504 662 5.0
504 336 3.0
504 470 5.0
504 728 5.0
504 1137 5.0
504 374 5.0
504 375 5.0
505 929 3.0
505 945 4.0
505 944 3.0
505 1084 1.0
505 339 4.0
505 859 5.0
505 395 5.0
506 797 5.0
506 415 5.0
506 1096 5.0
506 1228 5.0
506 339 5.0
506 421 5.0
506 600 5.0
507 840 5.0
507 878 4.0
507 603 5.0
507 912 5.0
507 920 4.0
507 428 4.0
507 682 4.0
508 339 5.0
508 1087 5.0
508 1131 5.0
508 1203 4.0
508 1224 5.0
508 1227 5.0
508 1230 5.0
509 339 4.0
509 728 5.0
509 828 5.0
509 1079 4.0
509 793 1.0
509 1058 1.0
509 1137 5.0
510 813 5.0
510 1060 5.0
510 729 5.0
510 1094 5.0
510 1140 4.0
510 1228 5.0
510 341 1.0
511 1152 4.0
511 341 5.0
511 1095 4.0
511 447 5.0
511 850 4.0
511 961 5.0
511 421 4.0
512 813 5.0
512 710 4.0
512 759 3.0
512 415 1.0
512 935 5.0
512 1054 5.0
512 559 4.0
513 1111 5.0
513 1229 3.0
513 470 5.0
513 986 5.0
513 728 5.0
513 1040 5.0
513 1137 5.0
514 392 4.0
514 996 3.0
514 950 5.0
514 364 5.0
514 489 5.0
514 812 5.0
514 957 4.0
515 346 3.0
515 983 2.0
515 985 4.0
515 1058 2.0
515 1327 2.0
515 1333 3.0
515 1334 1.0
516 346 3.0
516 709 4.0
516 741 4.0
516 799 4.0
516 487 4.0
516 792 4.0
516 872 4.0
517 958 5.0
517 961 5.0
517 349 5.0
517 1039 2.0
517 1111 4.0
517 729 5.0
517 1310 5.0
518 924 5.0
518 902 4.0
518 881 4.0
518 971 5.0
518 1026 4.0
518 349 5.0
518 1092 4.0
519 372 5.0
519 762 5.0
519 829 5.0
519 353 5.0
519 848 5.0
519 950 5.0
519 981 5.0
520 354 5.0
520 949 4.0
520 861 5.0
520 848 4.0
520 981 5.0
520 1047 2.0
520 829 5.0
521 644 4.0
521 688 5.0
521 626 4.0
521 405 3.0
521 794 3.0
521 966 4.0
521 356 5.0
522 825 5.0
522 853 5.0
522 855 5.0
522 516 5.0
522 535 5.0
522 970 5.0
522 369 5.0
523 479 5.0
523 892 3.0
523 370 3.0
523 501 2.0
523 1290 3.0
523 1107 3.0
523 1211 4.0
524 370 3.0
524 553 1.0
524 639 4.0
524 741 4.0
524 799 2.0
524 942 5.0
524 1107 2.0
525 467 4.0
525 649 5.0
525 372 5.0
525 507 5.0
525 939 5.0
525 580 5.0
525 588 5.0
526 416 5.0
526 507 5.0
526 475 5.0
526 674 5.0
526 413 4.0
526 372 5.0
526 649 5.0
527 852 2.0
527 1217 2.0
527 1214 3.0
527 828 2.0
527 1315 2.0
527 1244 3.0
527 1201 2.0
528 388 3.0
528 666 4.0
528 525 4.0
528 856 5.0
528 1223 5.0
528 1058 3.0
528 1059 4.0
529 561 5.0
529 596 4.0
529 921 3.0
529 440 5.0
529 1246 5.0
529 390 5.0
529 494 5.0
530 642 1.0
530 765 5.0
530 872 3.0
530 392 1.0
530 1040 5.0
530 562 4.0
530 1076 1.0
531 486 5.0
531 523 5.0
531 521 5.0
531 399 4.0
531 694 5.0
531 472 5.0
531 676 5.0
532 957 5.0
532 884 5.0
532 497 5.0
532 703 5.0
532 731 5.0
532 904 5.0
532 392 5.0
533 772 5.0
533 813 5.0
533 918 5.0
533 1013 5.0
533 1040 5.0
533 393 5.0
533 1095 5.0
534 393 5.0
534 877 5.0
534 904 4.0
534 1127 4.0
534 1189 5.0
534 1230 5.0
534 1277 4.0
535 454 1.0
535 643 5.0
535 769 1.0
535 393 1.0
535 828 5.0
535 1157 5.0
535 1090 4.0
536 446 5.0
536 772 5.0
536 393 5.0
536 958 5.0
536 1013 5.0
536 924 5.0
536 398 5.0
537 749 5.0
537 393 5.0
537 1013 5.0
537 1224 5.0
537 1206 5.0
537 1188 5.0
537 1201 5.0
538 450 4.0
538 396 3.0
538 479 4.0
538 439 5.0
538 1222 5.0
538 1241 3.0
538 1264 4.0
539 1120 5.0
539 1223 5.0
539 1231 5.0
539 1194 3.0
539 1217 5.0
539 401 5.0
539 1195 5.0
540 797 5.0
540 912 5.0
540 764 4.0
540 402 4.0
540 1228 4.0
540 449 3.0
540 1297 5.0
541 769 3.0
541 404 5.0
541 817 4.0
541 912 5.0
541 1214 5.0
541 1344 5.0
541 1360 4.0
542 748 5.0
542 756 5.0
542 1017 5.0
542 1018 2.0
542 1238 5.0
542 1270 5.0
542 1283 5.0
543 407 3.0
543 603 5.0
543 806 4.0
543 792 4.0
543 727 3.0
543 729 4.0
543 751 5.0
544 813 4.0
544 996 3.0
544 1008 4.0
544 1105 4.0
544 414 4.0
544 756 5.0
544 949 4.0
545 440 5.0
545 800 5.0
545 1111 4.0
545 978 5.0
545 564 5.0
545 756 5.0
545 565 4.0
546 446 5.0
546 420 5.0
546 677 1.0
546 839 5.0
546 787 2.0
546 1091 3.0
546 1172 4.0
547 616 3.0
547 421 5.0
547 603 5.0
547 736 5.0
547 1111 5.0
547 1078 4.0
547 570 4.0
548 788 5.0
548 421 5.0
548 603 5.0
548 423 4.0
548 829 5.0
548 716 5.0
548 1099 5.0
549 618 5.0
549 545 5.0
549 1276 5.0
549 421 5.0
549 462 5.0
549 494 5.0
549 722 5.0
550 958 4.0
550 421 5.0
550 828 5.0
550 1002 4.0
550 1142 5.0
550 1224 5.0
550 1189 5.0
551 763 5.0
551 815 5.0
551 817 5.0
551 820 5.0
551 828 5.0
551 830 5.0
551 832 5.0
552 746 5.0
552 1022 4.0
552 875 4.0
552 797 5.0
552 813 3.0
552 915 4.0
552 957 3.0
553 716 5.0
553 583 4.0
553 423 5.0
553 502 5.0
553 429 4.0
553 619 5.0
553 494 5.0
554 646 5.0
554 723 4.0
554 827 5.0
554 483 3.0
554 1073 5.0
554 1085 5.0
554 773 1.0
555 432 4.0
555 455 4.0
555 567 4.0
555 559 4.0
555 576 4.0
555 555 4.0
555 491 4.0
556 432 3.0
556 603 5.0
556 756 3.0
556 828 5.0
556 736 3.0
556 832 3.0
556 827 3.0
557 436 5.0
557 778 5.0
557 902 5.0
557 966 5.0
557 500 1.0
557 1075 1.0
557 1104 5.0
558 439 5.0
558 525 5.0
558 715 5.0
558 723 5.0
558 761 4.0
558 771 3.0
558 773 3.0
559 441 5.0
559 711 4.0
559 905 4.0
559 620 5.0
559 962 5.0
559 1006 4.0
559 1239 5.0
560 664 5.0
560 797 5.0
560 813 5.0
560 861 5.0
560 1096 4.0
560 722 5.0
560 1228 5.0
561 453 5.0
561 1099 5.0
561 716 5.0
561 797 5.0
561 1215 5.0
561 1228 5.0
561 1239 5.0
562 456 5.0
562 784 3.0
562 867 4.0
562 576 4.0
562 759 5.0
562 837 4.0
562 1104 4.0
563 543 3.0
563 456 4.0
563 553 4.0
563 759 2.0
563 624 1.0
563 582 5.0
563 784 4.0
564 569 5.0
564 589 5.0
564 456 5.0
564 772 1.0
564 916 4.0
564 951 1.0
564 909 5.0
565 987 4.0
565 466 5.0
565 1008 4.0
565 1065 5.0
565 950 5.0
565 1210 5.0
565 1040 5.0
566 467 5.0
566 747 5.0
566 877 5.0
566 649 5.0
566 574 5.0
566 466 5.0
566 1047 5.0
567 828 5.0
567 468 5.0
567 724 5.0
567 1083 5.0
567 1103 5.0
567 1154 5.0
567 1155 3.0
568 797 5.0
568 603 5.0
568 469 5.0
568 736 5.0
568 1297 5.0
568 1332 4.0
568 1339 4.0
569 522 5.0
569 814 4.0
569 885 4.0
569 995 4.0
569 864 4.0
569 990 4.0
569 988 5.0
570 470 5.0
570 779 2.0
570 1137 5.0
570 1140 5.0
570 1228 5.0
570 1239 5.0
570 1297 5.0
571 764 2.0
571 596 4.0
571 470 5.0
571 1214 5.0
571 1250 5.0
571 1297 2.0
571 1137 4.0
572 769 5.0
572 727 5.0
572 718 5.0
572 958 5.0
572 472 5.0
572 1112 5.0
572 749 5.0
573 828 5.0
573 1056 1.0
573 470 5.0
573 649 5.0
573 1111 5.0
573 844 5.0
573 1327 2.0
574 813 5.0
574 728 5.0
574 470 5.0
574 830 4.0
574 1137 5.0
574 1111 5.0
574 1232 5.0
575 470 5.0
575 1137 5.0
575 912 4.0
575 1140 5.0
575 1239 4.0
575 608 2.0
575 1196 5.0
576 471 5.0
576 512 2.0
576 855 1.0
576 1084 3.0
576 1079 5.0
576 706 2.0
576 764 2.0
577 708 5.0
577 480 5.0
577 533 5.0
577 840 5.0
577 835 5.0
577 852 5.0
577 773 4.0
578 483 5.0
578 482 3.0
578 600 5.0
578 601 5.0
578 756 5.0
578 752 5.0
578 815 5.0
579 482 2.0
579 522 3.0
579 631 1.0
579 817 5.0
579 951 2.0
579 1060 1.0
579 1087 5.0
580 861 5.0
580 797 5.0
580 951 1.0
580 1167 5.0
580 1226 5.0
580 485 5.0
580 1127 5.0
581 485 2.0
581 603 5.0
581 624 2.0
581 813 5.0
581 920 3.0
581 926 5.0
581 872 4.0
582 518 4.0
582 487 4.0
582 555 4.0
582 584 5.0
582 626 3.0
582 625 4.0
582 643 5.0
583 603 5.0
583 912 5.0
583 1006 5.0
583 1087 4.0
583 1140 5.0
583 1142 5.0
583 1154 5.0
584 489 5.0
584 875 3.0
584 902 3.0
584 600 5.0
584 638 5.0
584 948 4.0
584 924 4.0
585 490 5.0
585 1039 4.0
585 938 5.0
585 1040 5.0
585 595 4.0
585 993 5.0
585 1201 4.0
586 782 5.0
586 929 4.0
586 493 5.0
586 1014 5.0
586 575 4.0
586 788 5.0
586 1133 5.0
587 862 5.0
587 494 5.0
587 802 5.0
587 845 5.0
587 962 5.0
587 1169 5.0
587 1187 5.0
588 950 5.0
588 1008 5.0
588 949 5.0
588 963 5.0
588 1047 5.0
588 574 5.0
588 1141 5.0
589 729 5.0
589 815 5.0
589 1095 5.0
589 629 3.0
589 1111 4.0
589 503 3.0
589 693 5.0
590 817 5.0
590 1074 5.0
590 1087 5.0
590 1096 5.0
590 1142 5.0
590 1163 5.0
590 1190 5.0
591 603 5.0
591 756 5.0
591 997 5.0
591 1000 5.0
591 1024 5.0
591 1030 5.0
591 1032 5.0
592 521 5.0
592 526 3.0
592 818 4.0
592 763 5.0
592 1043 5.0
592 1045 4.0
592 1046 3.0
593 522 5.0
593 529 5.0
593 736 5.0
593 830 5.0
593 832 5.0
593 815 5.0
593 828 5.0
594 828 5.0
594 852 4.0
594 952 3.0
594 937 3.0
594 524 3.0
594 1131 5.0
594 1230 3.0
595 721 4.0
595 764 5.0
595 765 5.0
595 555 5.0
595 756 5.0
595 527 5.0
595 603 5.0
596 840 5.0
596 533 5.0
596 1242 1.0
596 1068 1.0
596 1310 1.0
596 1227 2.0
596 1235 1.0
597 536 5.0
597 1090 1.0
597 1095 5.0
597 1238 5.0
597 1188 4.0
597 1195 4.0
597 1232 4.0
598 1078 5.0
598 862 5.0
598 545 5.0
598 649 4.0
598 587 5.0
598 1181 4.0
598 570 4.0
599 765 5.0
599 813 5.0
599 555 5.0
599 1224 5.0
599 1239 5.0
599 1309 5.0
599 1244 3.0
600 555 5.0
600 639 5.0
600 730 5.0
600 776 5.0
600 837 5.0
600 895 5.0
600 1071 5.0
601 555 3.0
601 601 2.0
601 1142 4.0
601 1189 2.0
601 1215 3.0
601 1294 5.0
601 912 4.0
602 584 5.0
602 688 5.0
602 689 5.0
602 626 5.0
602 709 5.0
602 558 5.0
602 710 5.0
603 559 5.0
603 644 3.0
603 755 3.0
603 794 4.0
603 872 5.0
603 1293 4.0
603 1304 5.0
604 564 5.0
604 797 5.0
604 732 5.0
604 855 3.0
604 1122 1.0
604 932 4.0
604 1074 5.0
605 966 4.0
605 902 1.0
605 1116 5.0
605 1104 2.0
605 1121 5.0
605 956 1.0
605 1345 1.0
606 576 1.0
606 759 4.0
606 784 2.0
606 710 3.0
606 971 1.0
606 1075 2.0
606 1108 3.0
607 779 3.0
607 668 1.0
607 688 1.0
607 576 4.0
607 678 4.0
607 754 5.0
607 709 3.0
608 1011 2.0
608 1042 4.0
608 1043 3.0
608 1045 3.0
608 1048 5.0
608 1059 2.0
608 1050 4.0
609 643 2.0
609 644 3.0
609 663 1.0
609 668 5.0
609 689 5.0
609 758 5.0
609 582 1.0
610 592 5.0
610 729 5.0
610 817 5.0
610 958 5.0
610 963 5.0
610 961 5.0
610 1095 5.0
611 828 5.0
611 592 5.0
611 625 4.0
611 1195 3.0
611 1190 5.0
611 1189 5.0
611 1254 4.0
612 592 1.0
612 822 4.0
612 975 5.0
612 1073 1.0
612 1195 5.0
612 1219 5.0
612 1226 3.0
613 597 2.0
613 805 5.0
613 785 5.0
613 835 5.0
613 976 4.0
613 1214 5.0
613 1314 5.0
614 712 5.0
614 729 5.0
614 736 5.0
614 813 5.0
614 603 4.0
614 912 5.0
614 918 5.0
615 643 3.0
615 668 3.0
615 797 5.0
615 813 5.0
615 603 5.0
615 912 5.0
615 951 5.0
616 616 5.0
616 756 5.0
616 829 5.0
616 1167 5.0
616 1234 5.0
616 1226 4.0
616 1277 5.0
617 632 5.0
617 653 5.0
617 664 5.0
617 951 3.0
617 912 5.0
617 1006 4.0
617 1040 4.0
618 643 1.0
618 772 2.0
618 762 5.0
618 813 5.0
618 1013 3.0
618 934 5.0
618 1140 5.0
619 813 5.0
619 861 5.0
619 649 5.0
619 1158 4.0
619 1228 5.0
619 1303 5.0
619 1058 5.0
620 649 5.0
620 687 5.0
620 706 4.0
620 765 5.0
620 813 5.0
620 831 5.0
620 839 5.0
621 802 5.0
621 829 5.0
621 649 5.0
621 836 5.0
621 1173 5.0
621 756 5.0
621 1234 5.0
622 649 4.0
622 729 5.0
622 806 5.0
622 918 5.0
622 987 5.0
622 1022 5.0
622 1095 5.0
623 664 5.0
623 803 5.0
623 813 5.0
623 951 4.0
623 1140 5.0
623 1096 5.0
623 1254 5.0
624 917 5.0
624 1154 5.0
624 773 5.0
624 666 5.0
624 1200 1.0
624 1170 3.0
624 1185 5.0
625 668 1.0
625 736 2.0
625 797 4.0
625 912 5.0
625 961 4.0
625 972 4.0
625 813 4.0
626 668 4.0
626 688 2.0
626 971 2.0
626 1267 2.0
626 1304 1.0
626 1292 3.0
626 1341 2.0
627 675 5.0
627 676 4.0
627 952 3.0
627 828 5.0
627 1069 5.0
627 1201 3.0
627 1217 4.0
628 812 4.0
628 815 4.0
628 802 4.0
628 825 3.0
628 676 4.0
628 725 4.0
628 736 2.0
629 908 5.0
629 1001 5.0
629 688 5.0
629 1077 1.0
629 1143 3.0
629 1128 3.0
629 1192 3.0
630 688 5.0
630 705 4.0
630 996 5.0
630 949 4.0
630 1176 5.0
630 1269 5.0
630 1162 2.0
631 801 5.0
631 694 4.0
631 955 3.0
631 937 4.0
631 1095 3.0
631 1122 2.0
631 1091 4.0
632 826 5.0
632 830 4.0
632 840 5.0
632 1103 5.0
632 1244 5.0
632 700 4.0
632 1227 5.0
633 1267 5.0
633 888 4.0
633 1128 3.0
633 1143 4.0
633 1257 3.0
633 966 4.0
633 881 4.0
634 750 5.0
634 749 5.0
634 716 5.0
634 781 5.0
634 1099 5.0
634 711 4.0
634 1080 4.0
635 712 1.0
635 736 5.0
635 725 5.0
635 822 5.0
635 824 5.0
635 827 5.0
635 820 5.0
636 721 5.0
636 802 3.0
636 852 5.0
636 979 2.0
636 817 5.0
636 1070 5.0
636 1089 5.0
637 1060 1.0
637 912 5.0
637 1096 5.0
637 1073 5.0
637 723 5.0
637 1087 5.0
637 1103 5.0
638 815 5.0
638 802 5.0
638 725 5.0
638 728 5.0
638 750 5.0
638 825 5.0
638 1130 5.0
639 1140 5.0
639 1314 3.0
639 1332 1.0
639 940 3.0
639 1223 5.0
639 1205 4.0
639 728 5.0
640 779 3.0
640 799 3.0
640 845 3.0
640 810 5.0
640 728 4.0
640 1065 5.0
640 1137 4.0
641 887 5.0
641 965 5.0
641 854 3.0
641 925 4.0
641 1040 5.0
641 728 4.0
641 1087 5.0
642 728 5.0
642 810 5.0
642 817 5.0
642 1202 5.0
642 1327 1.0
642 1333 5.0
642 1334 5.0
643 728 4.0
643 802 4.0
643 810 5.0
643 828 4.0
643 832 4.0
643 852 4.0
643 912 5.0
644 918 5.0
644 1109 5.0
644 729 5.0
644 1095 5.0
644 827 5.0
644 1254 5.0
644 1255 5.0
645 729 5.0
645 1327 3.0
645 1330 5.0
645 1332 5.0
645 1334 5.0
645 1335 5.0
645 1336 4.0
646 731 5.0
646 813 4.0
646 814 4.0
646 866 5.0
646 954 5.0
646 1148 4.0
646 1327 2.0
647 748 4.0
647 746 4.0
647 845 4.0
647 852 4.0
647 769 5.0
647 827 4.0
647 900 4.0
648 748 2.0
648 749 1.0
648 830 5.0
648 854 4.0
648 1193 4.0
648 1238 1.0
648 1187 5.0
649 756 5.0
649 802 5.0
649 812 5.0
649 815 5.0
649 828 5.0
649 830 5.0
649 831 5.0
650 756 5.0
650 961 5.0
650 1277 5.0
650 1214 5.0
650 1186 5.0
650 1201 5.0
650 1368 5.0
651 756 5.0
651 1226 5.0
651 1227 5.0
651 1125 5.0
651 1195 5.0
651 1122 5.0
651 1232 5.0
652 813 5.0
652 1096 5.0
652 1196 5.0
652 1208 5.0
652 1228 5.0
652 1137 5.0
652 793 4.0
653 784 4.0
653 867 4.0
653 902 5.0
653 1104 4.0
653 1108 4.0
653 1156 3.0
653 1388 5.0
654 792 4.0
654 1170 4.0
654 1165 3.0
654 1375 4.0
654 1404 3.0
654 1081 3.0
654 1286 4.0
655 797 5.0
655 813 5.0
655 802 5.0
655 830 5.0
655 1087 5.0
655 829 5.0
655 987 5.0
656 828 5.0
656 802 5.0
656 951 5.0
656 1189 5.0
656 1326 5.0
656 1206 5.0
656 1250 5.0
657 810 5.0
657 828 5.0
657 832 5.0
657 951 5.0
657 962 5.0
657 1194 5.0
657 1314 4.0
658 813 4.0
658 814 4.0
658 937 5.0
658 965 5.0
658 1049 1.0
658 1057 2.0
658 1058 5.0
659 813 5.0
659 853 5.0
659 861 5.0
659 1022 4.0
659 1040 5.0
659 1095 5.0
659 1208 5.0
660 1051 5.0
660 814 5.0
660 825 4.0
660 1013 5.0
660 1120 5.0
660 1122 5.0
660 1129 3.0
661 835 5.0
661 815 5.0
661 819 5.0
661 826 5.0
661 827 5.0
661 914 5.0
661 1203 5.0
662 827 5.0
662 918 5.0
662 951 5.0
662 953 5.0
662 975 5.0
662 914 5.0
662 1006 5.0
663 828 5.0
663 1072 2.0
663 1089 2.0
663 1114 3.0
663 1137 3.0
663 840 2.0
663 1224 3.0
664 1238 5.0
664 1270 5.0
664 1087 5.0
664 951 5.0
664 1142 1.0
664 1195 5.0
664 1214 5.0
665 828 5.0
665 830 5.0
665 1183 4.0
665 1194 1.0
665 1202 4.0
665 1217 1.0
665 1231 2.0
666 1203 5.0
666 1314 5.0
666 1315 5.0
666 836 5.0
666 1201 5.0
666 1225 5.0
666 1230 5.0
667 849 4.0
667 951 2.0
667 892 1.0
667 1124 4.0
667 1113 2.0
667 1165 1.0
667 1251 2.0
668 861 5.0
668 1111 5.0
668 885 5.0
668 912 5.0
668 1270 5.0
668 1306 5.0
668 1349 5.0
669 1103 5.0
669 1214 5.0
669 936 5.0
669 1216 1.0
669 1227 5.0
669 1229 3.0
669 1231 3.0
670 1142 5.0
670 1214 2.0
670 1350 5.0
670 1412 5.0
670 951 2.0
670 1326 1.0
670 1344 5.0
671 972 5.0
671 1117 2.0
671 1112 5.0
671 1055 5.0
671 1190 5.0
671 1131 5.0
671 1379 5.0
672 1042 3.0
672 1046 2.0
672 987 5.0
672 1058 4.0
672 1332 4.0
672 1334 1.0
672 1337 5.0
673 994 3.0
673 1156 5.0
673 1369 5.0
673 1376 4.0
673 1400 5.0
673 1383 2.0
673 1352 4.0
674 1011 4.0
674 1327 3.0
674 1336 4.0
674 1337 3.0
674 1330 3.0
674 1335 3.0
674 1338 2.0
675 1022 5.0
675 1195 5.0
675 1225 4.0
675 1230 5.0
675 1286 4.0
675 1231 5.0
675 1227 5.0
676 1040 3.0
676 1293 4.0
676 1346 3.0
676 1299 3.0
676 1374 4.0
676 1344 3.0
676 1349 5.0
677 1042 5.0
677 1043 5.0
677 1044 5.0
677 1045 5.0
677 1046 5.0
677 1048 3.0
677 1049 3.0
678 1042 3.0
678 1046 4.0
678 1050 1.0
678 1056 4.0
678 1043 3.0
678 1044 3.0
678 1045 2.0
679 1043 5.0
679 1045 3.0
679 1049 5.0
679 1051 2.0
679 1057 3.0
679 1059 5.0
679 1050 1.0
680 1050 5.0
680 1043 3.0
680 1044 5.0
680 1048 4.0
680 1056 4.0
680 1059 3.0
680 1334 5.0
681 1044 5.0
681 1049 4.0
681 1198 5.0
681 1327 1.0
681 1330 5.0
681 1333 3.0
681 1334 1.0
682 1049 1.0
682 1050 3.0
682 1051 1.0
682 1056 1.0
682 1057 5.0
682 1058 5.0
682 1059 4.0
683 1049 2.0
683 1050 3.0
683 1051 4.0
683 1056 4.0
683 1057 5.0
683 1058 4.0
683 1059 4.0
684 1051 4.0
684 1056 3.0
684 1057 4.0
684 1058 3.0
684 1060 2.0
684 1049 3.0
684 1332 4.0
685 1059 2.0
685 1050 5.0
685 1058 2.0
685 1051 1.0
685 1057 5.0
685 1334 1.0
685 1338 5.0
686 1087 5.0
686 1295 5.0
686 1307 5.0
686 1374 1.0
686 1387 3.0
686 1372 5.0
686 1400 5.0
687 1243 5.0
687 1303 5.0
687 1143 5.0
687 1217 5.0
687 1239 5.0
687 1291 3.0
687 1309 5.0
688 1190 5.0
688 1191 4.0
688 1220 1.0
688 1183 3.0
688 1225 2.0
688 1233 5.0
688 1203 4.0
689 1282 5.0
689 1341 4.0
689 1369 5.0
689 1374 4.0
689 1376 5.0
689 1394 5.0
689 1401 4.0
690 1327 4.0
690 1330 2.0
690 1333 5.0
690 1334 5.0
690 1335 5.0
690 1336 5.0
690 1337 2.0
